id;tracking_code;date;details;invoice_id
1;Mouse Villages;2022-07-09T05:00:07;unleash integrate;1
2;Gloves Account Belarussian;2022-07-09T15:00:28;Orchestrator Stravenue;2
3;Gorgeous Checking;2022-07-08T20:19:00;SSL zero;3
4;user-facing turquoise;2022-07-09T10:09:08;Iran Garden auxiliary;4
5;experiences multi-tasking Tasty;2022-07-08T21:37:01;Viaduct Bedfordshire;5
6;Shoes Avon;2022-07-09T16:58:34;Lilangeni;6
7;Music Handmade;2022-07-09T02:36:12;Estate red;7
8;Officer mobile Specialist;2022-07-09T12:26:15;system;8
9;bypass;2022-07-09T17:58:33;Streamlined;9
10;invoice Quality-focused hack;2022-07-08T22:19:22;wireless Borders;10
