{
  "applications": ["store", "notification"],
  "changelogDate": "20220709202009",
  "clientRootFolder": "notification",
  "databaseType": "sql",
  "dto": "no",
  "embedded": false,
  "entityTableName": "notification",
  "fields": [
    {
      "fieldName": "date",
      "fieldType": "Instant",
      "fieldValidateRules": ["required"]
    },
    {
      "fieldName": "details",
      "fieldType": "String"
    },
    {
      "fieldName": "sentDate",
      "fieldType": "Instant",
      "fieldValidateRules": ["required"]
    },
    {
      "fieldName": "format",
      "fieldType": "NotificationType",
      "fieldValidateRules": ["required"],
      "fieldValues": "EMAIL,SMS,PARCEL"
    },
    {
      "fieldName": "userId",
      "fieldType": "Long",
      "fieldValidateRules": ["required"]
    },
    {
      "fieldName": "productId",
      "fieldType": "Long",
      "fieldValidateRules": ["required"]
    }
  ],
  "fluentMethods": true,
  "jpaMetamodelFiltering": false,
  "microserviceName": "notification",
  "name": "Notification",
  "pagination": "no",
  "readOnly": false,
  "relationships": [],
  "service": "serviceClass"
}
